{
  "appName": {
    "message": "Amazon Smart Shopper"
  },
  "shortName": {
    "message": "Amazon Smart Shopper"
  },
  "appDesc": {
    "message": "あなたがAmazonで買い物をしている間、アマゾンスマートショッパーは、eBayでより良い価格をチェック"
  },
  "getProductAtEbay": {
    "message": "::currency:priceからeBayでこの製品を入手"
  }
}