{
  "appName": {
    "message": "Amazon Smart Shopper"
  },
  "shortName": {
    "message": "Amazon Smart Shopper"
  },
  "appDesc": {
    "message": "亚马逊精明的购物者检查在eBay上更好的价格，而你是在亚马逊购物"
  },
  "getProductAtEbay": {
    "message": "从::currency:price送该产品在eBay上 "
  }
}